producto_cod,nombre,categoria_nombre,cantidad_stock,precio_venta,precio_proveedor
11679,Sierra de Poda 400MM,Herramientas,15,14.00,11.00
21636,Pala,Herramientas,15,14.00,13.00
22225,Rastrillo de Jardín,Herramientas,15,12.00,11.00
30310,Azadón,Herramientas,15,12.00,11.00
AR-001,Ajedrea,Aromáticas,140,1.00,0.00
AR-002,Lavándula Dentata,Aromáticas,140,1.00,0.00
AR-003,Mejorana,Aromáticas,140,1.00,0.00
AR-004,Melissa ,Aromáticas,140,1.00,0.00
AR-005,Mentha Sativa,Aromáticas,140,1.00,0.00
AR-006,Petrosilium Hortense (Peregil),Aromáticas,140,1.00,0.00
AR-007,Salvia Mix,Aromáticas,140,1.00,0.00
AR-008,Thymus Citriodra (Tomillo limón),Aromáticas,140,1.00,0.00
AR-009,Thymus Vulgaris,Aromáticas,140,1.00,0.00
AR-010,Santolina Chamaecyparys,Aromáticas,140,1.00,0.00
FR-1,Expositor Cítricos Mix,Frutales,15,7.00,5.00
FR-10,Limonero 2 años injerto,Frutales,15,7.00,5.00
FR-100,Nectarina,Frutales,50,11.00,8.00
FR-101,Nogal,Frutales,50,13.00,10.00
FR-102,Olea-Olivos,Frutales,50,18.00,14.00
FR-106,Peral,Frutales,50,11.00,8.00
FR-11,Limonero 30/40,Frutales,15,100.00,80.00
FR-12,Kunquat ,Frutales,15,21.00,16.00
FR-13,Kunquat EXTRA con FRUTA,Frutales,15,57.00,45.00
FR-14,Calamondin Mini,Frutales,15,10.00,8.00
FR-15,Calamondin Copa ,Frutales,15,25.00,20.00
FR-16,Calamondin Copa EXTRA Con FRUTA,Frutales,15,45.00,36.00
FR-18,ROSAL TREPADOR,Frutales,350,4.00,3.00
FR-2,Naranjo Plantón joven 1 año injerto,Frutales,15,6.00,4.00
FR-20,Landora Amarillo,Frutales,350,4.00,3.00
FR-21,Kordes Perfect bicolor rojo-amarillo,Frutales,350,4.00,3.00
FR-22,Pitimini rojo,Frutales,350,4.00,3.00
FR-23,Rosal copa ,Frutales,400,8.00,6.00
FR-24,Albaricoquero Corbato,Frutales,400,8.00,6.00
FR-25,Albaricoquero Moniqui,Frutales,400,8.00,6.00
FR-26,Albaricoquero Kurrot,Frutales,400,8.00,6.00
FR-27,Cerezo Burlat,Frutales,400,8.00,6.00
FR-28,Cerezo Picota,Frutales,400,8.00,6.00
FR-29,Cerezo Napoleón,Frutales,400,8.00,6.00
FR-3,Naranjo 2 años injerto,Frutales,15,7.00,5.00
FR-30,Ciruelo R. Claudia Verde   ,Frutales,400,8.00,6.00
FR-31,Ciruelo Santa Rosa,Frutales,400,8.00,6.00
FR-32,Ciruelo Golden Japan,Frutales,400,8.00,6.00
FR-33,Ciruelo Friar,Frutales,400,8.00,6.00
